{
    "version": "https://jsonfeed.org/version/1",
    "title": "Fìlo By Tess",
    "description": "",
    "home_page_url": "https://filobytess.gitlab.io/filo-by-tess-website-v1",
    "feed_url": "https://filobytess.gitlab.io/filo-by-tess-website-v1/feed.json",
    "user_comment": "",
    "icon": "https://filobytess.gitlab.io/filo-by-tess-website-v1/media/website/Tess_Filo_FULL_Small_Mod-Subtext.png",
    "author": {
        "name": "Tessa C"
    },
    "items": [
        {
            "id": "https://filobytess.gitlab.io/filo-by-tess-website-v1/cozy-comfort-bracelets.html",
            "url": "https://filobytess.gitlab.io/filo-by-tess-website-v1/cozy-comfort-bracelets.html",
            "title": "Calming Comfort Bracelets",
            "summary": " Do you ever want something calming and cozy to touch if&hellip;",
            "content_html": "<p> </p>\n<div class=\"gallery-wrapper\"><div class=\"gallery\"  data-is-empty=\"false\" data-columns=\"7\">\n<figure class=\"gallery__item\"><a href=\"https://filobytess.gitlab.io/filo-by-tess-website-v1/media/posts/18/gallery/plushvelvet.jpeg\" data-size=\"768x1024\"><img loading=\"lazy\" src=\"https://filobytess.gitlab.io/filo-by-tess-website-v1/media/posts/18/gallery/plushvelvet-thumbnail.jpeg\" alt=\"\" width=\"768\" height=\"1024\"></a></figure>\n<figure class=\"gallery__item\"><a href=\"https://filobytess.gitlab.io/filo-by-tess-website-v1/media/posts/18/gallery/plush-bracelets-backround.jpeg\" data-size=\"1352x1803\"><img loading=\"lazy\" src=\"https://filobytess.gitlab.io/filo-by-tess-website-v1/media/posts/18/gallery/plush-bracelets-backround-thumbnail.jpeg\" alt=\"\" width=\"768\" height=\"1024\"></a></figure>\n<figure class=\"gallery__item\"><a href=\"https://filobytess.gitlab.io/filo-by-tess-website-v1/media/posts/18/gallery/Wire-2021-12-04-at-2_00-PM1.jpeg\" data-size=\"1803x1352\"><img loading=\"lazy\" src=\"https://filobytess.gitlab.io/filo-by-tess-website-v1/media/posts/18/gallery/Wire-2021-12-04-at-2_00-PM1-thumbnail.jpeg\" alt=\"\" width=\"768\" height=\"576\"></a></figure>\n<figure class=\"gallery__item\"><a href=\"https://filobytess.gitlab.io/filo-by-tess-website-v1/media/posts/18/gallery/allcolorsvelvet.jpeg\" data-size=\"1802x1352\"><img loading=\"lazy\" src=\"https://filobytess.gitlab.io/filo-by-tess-website-v1/media/posts/18/gallery/allcolorsvelvet-thumbnail.jpeg\" alt=\"\" width=\"768\" height=\"576\"></a></figure>\n<figure class=\"gallery__item\"><a href=\"https://filobytess.gitlab.io/filo-by-tess-website-v1/media/posts/18/gallery/blushbracelet.jpeg\" data-size=\"1352x1803\"><img loading=\"lazy\" src=\"https://filobytess.gitlab.io/filo-by-tess-website-v1/media/posts/18/gallery/blushbracelet-thumbnail.jpeg\" alt=\"\" width=\"768\" height=\"1024\"></a></figure>\n<figure class=\"gallery__item\"><a href=\"https://filobytess.gitlab.io/filo-by-tess-website-v1/media/posts/18/gallery/grayvelvet.jpeg\" data-size=\"1352x1803\"><img loading=\"lazy\" src=\"https://filobytess.gitlab.io/filo-by-tess-website-v1/media/posts/18/gallery/grayvelvet-thumbnail.jpeg\" alt=\"\" width=\"768\" height=\"1024\"></a></figure>\n<figure class=\"gallery__item\"><a href=\"https://filobytess.gitlab.io/filo-by-tess-website-v1/media/posts/18/gallery/plushbracelets.jpeg\" data-size=\"1352x1803\"><img loading=\"lazy\" src=\"https://filobytess.gitlab.io/filo-by-tess-website-v1/media/posts/18/gallery/plushbracelets-thumbnail.jpeg\" alt=\"\" width=\"768\" height=\"1024\"></a></figure>\n</div></div>\n<p class=\"align-center\">Do you ever want something calming and cozy to touch if you are feeling anxious or stressed? Carry it around on your wrist while adding a nice accessory to your wardrobe! Every one of my Calming Comfort Bracelets is made with extra soft yarn, in your choice of plush (pictured in light tan and blush) or velvet (pictured in green,pearl, gray,and pink). </p>\n<p class=\"align-center\"><em><strong>Price: $20</strong></em></p>",
            "image": "https://filobytess.gitlab.io/filo-by-tess-website-v1/media/posts/18/plushvelvet.jpeg",
            "author": {
                "name": "Tessa C"
            },
            "tags": [
            ],
            "date_published": "2021-11-29T17:18:32-05:00",
            "date_modified": "2022-02-15T21:35:14-05:00"
        },
        {
            "id": "https://filobytess.gitlab.io/filo-by-tess-website-v1/hats.html",
            "url": "https://filobytess.gitlab.io/filo-by-tess-website-v1/hats.html",
            "title": "Hats",
            "summary": "Plush Knit Hats My super soft plush knit hats are made with&hellip;",
            "content_html": "<h3 class=\"align-center\">Plush Knit Hats</h3>\n<div class=\"gallery-wrapper\"><div class=\"gallery\"  data-is-empty=\"false\" data-columns=\"7\">\n<figure class=\"gallery__item\"><a href=\"https://filobytess.gitlab.io/filo-by-tess-website-v1/media/posts/16/gallery/plush-hats.jpeg\" data-size=\"1803x1352\"><img loading=\"lazy\" src=\"https://filobytess.gitlab.io/filo-by-tess-website-v1/media/posts/16/gallery/plush-hats-thumbnail.jpeg\" alt=\"\" width=\"768\" height=\"576\"></a></figure>\n<figure class=\"gallery__item\"><a href=\"https://filobytess.gitlab.io/filo-by-tess-website-v1/media/posts/16/gallery/hat-from-side.jpeg\" data-size=\"768x1024\"><img loading=\"lazy\" src=\"https://filobytess.gitlab.io/filo-by-tess-website-v1/media/posts/16/gallery/hat-from-side-thumbnail.jpeg\" alt=\"\" width=\"768\" height=\"1024\"></a></figure>\n<figure class=\"gallery__item\"><a href=\"https://filobytess.gitlab.io/filo-by-tess-website-v1/media/posts/16/gallery/plush-hats-off-white.jpeg\" data-size=\"1352x1803\"><img loading=\"lazy\" src=\"https://filobytess.gitlab.io/filo-by-tess-website-v1/media/posts/16/gallery/plush-hats-off-white-thumbnail.jpeg\" alt=\"\" width=\"768\" height=\"1024\"></a></figure>\n<figure class=\"gallery__item\"><a href=\"https://filobytess.gitlab.io/filo-by-tess-website-v1/media/posts/16/gallery/pearl-plush-hat.jpeg\" data-size=\"1352x1803\"><img loading=\"lazy\" src=\"https://filobytess.gitlab.io/filo-by-tess-website-v1/media/posts/16/gallery/pearl-plush-hat-thumbnail.jpeg\" alt=\"\" width=\"768\" height=\"1024\"></a></figure>\n<figure class=\"gallery__item\"><a href=\"https://filobytess.gitlab.io/filo-by-tess-website-v1/media/posts/16/gallery/plushpink-hat.jpeg\" data-size=\"1352x1803\"><img loading=\"lazy\" src=\"https://filobytess.gitlab.io/filo-by-tess-website-v1/media/posts/16/gallery/plushpink-hat-thumbnail.jpeg\" alt=\"\" width=\"768\" height=\"1024\"></a></figure>\n<figure class=\"gallery__item\"><a href=\"https://filobytess.gitlab.io/filo-by-tess-website-v1/media/posts/16/gallery/plush-hatsbackround1.jpeg\" data-size=\"1352x1803\"><img loading=\"lazy\" src=\"https://filobytess.gitlab.io/filo-by-tess-website-v1/media/posts/16/gallery/plush-hatsbackround1-thumbnail.jpeg\" alt=\"\" width=\"768\" height=\"1024\"></a></figure>\n<figure class=\"gallery__item\"><a href=\"https://filobytess.gitlab.io/filo-by-tess-website-v1/media/posts/16/gallery/hat-from-behind.jpeg\" data-size=\"768x1024\"><img loading=\"lazy\" src=\"https://filobytess.gitlab.io/filo-by-tess-website-v1/media/posts/16/gallery/hat-from-behind-thumbnail.jpeg\" alt=\"\" width=\"768\" height=\"1024\"></a></figure>\n</div></div>\n<p class=\"align-center\">My super soft plush knit hats are made with hygge yarn and have a pom pom to top them off!</p>\n<p class=\"align-center\"><em><strong>Price: $35</strong></em></p>\n<p class=\"align-center\"> </p>",
            "image": "https://filobytess.gitlab.io/filo-by-tess-website-v1/media/posts/16/plush-hatsbackround1.jpeg",
            "author": {
                "name": "Tessa C"
            },
            "tags": [
            ],
            "date_published": "2021-07-16T20:12:04-04:00",
            "date_modified": "2022-02-15T21:34:45-05:00"
        },
        {
            "id": "https://filobytess.gitlab.io/filo-by-tess-website-v1/baby-booties.html",
            "url": "https://filobytess.gitlab.io/filo-by-tess-website-v1/baby-booties.html",
            "title": "Baby Booties",
            "summary": "Baby Booties My soft and cozy baby booties are the perfect gift&hellip;",
            "content_html": "<h2 class=\"align-center\">Baby Booties</h2>\n<div class=\"gallery-wrapper\"><div class=\"gallery\"  data-is-empty=\"false\" data-columns=\"5\">\n<figure class=\"gallery__item\"><a href=\"https://filobytess.gitlab.io/filo-by-tess-website-v1/media/posts/13/gallery/006B492F-B7DB-4778-9113-7677AA231C72.jpeg\" data-size=\"4032x3024\"><img loading=\"lazy\" src=\"https://filobytess.gitlab.io/filo-by-tess-website-v1/media/posts/13/gallery/006B492F-B7DB-4778-9113-7677AA231C72-thumbnail.jpeg\" alt=\"\" width=\"768\" height=\"576\"></a></figure>\n<figure class=\"gallery__item\"><a href=\"https://filobytess.gitlab.io/filo-by-tess-website-v1/media/posts/13/gallery/baby-booties-some.jpeg\" data-size=\"1024x768\"><img loading=\"lazy\" src=\"https://filobytess.gitlab.io/filo-by-tess-website-v1/media/posts/13/gallery/baby-booties-some-thumbnail.jpeg\" alt=\"\" width=\"768\" height=\"576\"></a></figure>\n<figure class=\"gallery__item\"><a href=\"https://filobytess.gitlab.io/filo-by-tess-website-v1/media/posts/13/gallery/babybootiesbackround.jpeg\" data-size=\"1352x1803\"><img loading=\"lazy\" src=\"https://filobytess.gitlab.io/filo-by-tess-website-v1/media/posts/13/gallery/babybootiesbackround-thumbnail.jpeg\" alt=\"\" width=\"768\" height=\"1024\"></a></figure>\n<figure class=\"gallery__item\"><a href=\"https://filobytess.gitlab.io/filo-by-tess-website-v1/media/posts/13/gallery/yellowbottiesbackround.jpeg\" data-size=\"1352x1803\"><img loading=\"lazy\" src=\"https://filobytess.gitlab.io/filo-by-tess-website-v1/media/posts/13/gallery/yellowbottiesbackround-thumbnail.jpeg\" alt=\"\" width=\"768\" height=\"1024\"></a></figure>\n<figure class=\"gallery__item\"><a href=\"https://filobytess.gitlab.io/filo-by-tess-website-v1/media/posts/13/gallery/bluebooties2.jpeg\" data-size=\"1352x1803\"><img loading=\"lazy\" src=\"https://filobytess.gitlab.io/filo-by-tess-website-v1/media/posts/13/gallery/bluebooties2-thumbnail.jpeg\" alt=\"\" width=\"768\" height=\"1024\"></a></figure>\n</div></div>\n<p class=\"align-center\">My soft and cozy baby booties are the perfect gift for an expectant or new mom. They are made to fit 0-3 months.<br><em><strong>Price: $30</strong></em></p>",
            "image": "https://filobytess.gitlab.io/filo-by-tess-website-v1/media/posts/13/006B492F-B7DB-4778-9113-7677AA231C72.jpeg",
            "author": {
                "name": "Tessa C"
            },
            "tags": [
            ],
            "date_published": "2021-07-13T11:24:01-04:00",
            "date_modified": "2022-02-15T21:35:35-05:00"
        },
        {
            "id": "https://filobytess.gitlab.io/filo-by-tess-website-v1/slipper-socks.html",
            "url": "https://filobytess.gitlab.io/filo-by-tess-website-v1/slipper-socks.html",
            "title": "Slipper Socks",
            "summary": "My Slipper Socks are one size fits all and will keep your&hellip;",
            "content_html": "<p class=\"align-center\">My Slipper Socks are one size fits all and will keep your feet warm, comfortable, and cozy!</p>\n<h2 class=\"align-center\">Cozy Slipper Socks</h2>\n<div class=\"gallery-wrapper\"><div class=\"gallery\"  data-is-empty=\"false\" data-columns=\"1\">\n<figure class=\"gallery__item\"><a href=\"https://filobytess.gitlab.io/filo-by-tess-website-v1/media/posts/12/gallery/slipper-socks.jpeg.jpg\" data-size=\"2016x1512\"><img loading=\"lazy\" src=\"https://filobytess.gitlab.io/filo-by-tess-website-v1/media/posts/12/gallery/slipper-socks.jpeg-thumbnail.jpg\" alt=\"\" width=\"768\" height=\"576\"></a></figure>\n</div></div>\n<p class=\"align-center\">These Cozy Slipper Socks are made with my thick bulky or super bulky yarn. <br><em><strong>Price: $30</strong></em></p>\n<hr>\n<h2 class=\"align-center\">Plush Slipper Socks</h2>\n<div class=\"gallery-wrapper\"><div class=\"gallery\"  data-is-empty=\"false\" data-columns=\"1\">\n<figure class=\"gallery__item\"><a href=\"https://filobytess.gitlab.io/filo-by-tess-website-v1/media/posts/12/gallery/plush-slipper-socks.jpeg.jpg\" data-size=\"1512x2016\"><img loading=\"lazy\" src=\"https://filobytess.gitlab.io/filo-by-tess-website-v1/media/posts/12/gallery/plush-slipper-socks.jpeg-thumbnail.jpg\" alt=\"\" width=\"768\" height=\"1024\"></a></figure>\n</div></div>\n<p class=\"align-center\"><span style=\"color: var(--text-editor-body-color); font-family: var(--font-base); font-size: inherit; font-weight: var(--font-weight-normal);\">These Plush Slipper Socks are made with super soft hygge yarn.</span><em><strong><br>Price: $35</strong></em></p>",
            "image": "https://filobytess.gitlab.io/filo-by-tess-website-v1/media/posts/12/slipper-socks.jpeg-2.jpg",
            "author": {
                "name": "Tessa C"
            },
            "tags": [
            ],
            "date_published": "2021-07-13T11:18:32-04:00",
            "date_modified": "2021-11-29T17:28:09-05:00"
        },
        {
            "id": "https://filobytess.gitlab.io/filo-by-tess-website-v1/ice-cream-cozies.html",
            "url": "https://filobytess.gitlab.io/filo-by-tess-website-v1/ice-cream-cozies.html",
            "title": "Ice Cream Cozies",
            "summary": "Ice Cream Pint Cozies (click or tap an image to enlarge) Do&hellip;",
            "content_html": "<h2 class=\"align-center\">Ice Cream Pint Cozies</h2>\n<div class=\"gallery-wrapper gallery-wrapper--wide\"><div class=\"gallery\"  data-is-empty=\"false\" data-columns=\"3\">\n<figure class=\"gallery__item\"><a href=\"https://filobytess.gitlab.io/filo-by-tess-website-v1/media/posts/11/gallery/ice-cream-cozys.jpeg\" data-size=\"2016x1512\"><img loading=\"lazy\" src=\"https://filobytess.gitlab.io/filo-by-tess-website-v1/media/posts/11/gallery/ice-cream-cozys-thumbnail.jpeg\" alt=\"\" width=\"768\" height=\"576\"></a></figure>\n<figure class=\"gallery__item\"><a href=\"https://filobytess.gitlab.io/filo-by-tess-website-v1/media/posts/11/gallery/ice-cream-cozys-2.jpeg\" data-size=\"2016x1512\"><img loading=\"lazy\" src=\"https://filobytess.gitlab.io/filo-by-tess-website-v1/media/posts/11/gallery/ice-cream-cozys-2-thumbnail.jpeg\" alt=\"\" width=\"768\" height=\"576\"></a></figure>\n<figure class=\"gallery__item\"><a href=\"https://filobytess.gitlab.io/filo-by-tess-website-v1/media/posts/11/gallery/3DCE3C14-5AE5-4028-9244-D1DD1E1A3415.jpeg\" data-size=\"4032x3024\"><img loading=\"lazy\" src=\"https://filobytess.gitlab.io/filo-by-tess-website-v1/media/posts/11/gallery/3DCE3C14-5AE5-4028-9244-D1DD1E1A3415-thumbnail.jpeg\" alt=\"\" width=\"768\" height=\"576\"></a></figure>\n</div></div>\n<p class=\"align-center\"><em>(click or tap an image to enlarge)</em></p>\n<p class=\"align-center\">Do your hands get too cold while eating your favorite pint of ice cream? Mine too! Now you can enjoy your favorite flavors with your hands on one of my warm and soft pint cozies.</p>\n<p class=\"align-center\"><em>*They also work well on a cup, thermos, and more! </em></p>\n<p class=\"align-center\"><strong>Price: <em>$10 </em></strong><em>-or- <strong>2 for $18</strong></em></p>",
            "image": "https://filobytess.gitlab.io/filo-by-tess-website-v1/media/posts/11/3DCE3C14-5AE5-4028-9244-D1DD1E1A3415-2.jpeg",
            "author": {
                "name": "Tessa C"
            },
            "tags": [
            ],
            "date_published": "2021-07-09T10:52:55-04:00",
            "date_modified": "2021-10-31T19:46:36-04:00"
        },
        {
            "id": "https://filobytess.gitlab.io/filo-by-tess-website-v1/cable-knit-warming-headbands.html",
            "url": "https://filobytess.gitlab.io/filo-by-tess-website-v1/cable-knit-warming-headbands.html",
            "title": "Cable Knit Warming Headbands",
            "summary": " Cozy Warming Headband This thick and cozy headband will be sure&hellip;",
            "content_html": "<div class=\"gallery-wrapper\"><div class=\"gallery\"  data-is-empty=\"false\" data-columns=\"5\">\n<figure class=\"gallery__item\"><a href=\"https://filobytess.gitlab.io/filo-by-tess-website-v1/media/posts/10/gallery/cozy-headbands\" data-size=\"1803x1205\"><img loading=\"lazy\" src=\"https://filobytess.gitlab.io/filo-by-tess-website-v1/media/posts/10/gallery/cozy-headbands\" alt=\"\"></a></figure>\n<figure class=\"gallery__item\"><a href=\"https://filobytess.gitlab.io/filo-by-tess-website-v1/media/posts/10/gallery/Wire-2021-10-31-at-9_39-AM.jpeg\" data-size=\"1803x901\"><img loading=\"lazy\" src=\"https://filobytess.gitlab.io/filo-by-tess-website-v1/media/posts/10/gallery/Wire-2021-10-31-at-9_39-AM-thumbnail.jpeg\" alt=\"\" width=\"768\" height=\"384\"></a></figure>\n<figure class=\"gallery__item\"><a href=\"https://filobytess.gitlab.io/filo-by-tess-website-v1/media/posts/10/gallery/thickheadbands.jpeg\" data-size=\"1802x1352\"><img loading=\"lazy\" src=\"https://filobytess.gitlab.io/filo-by-tess-website-v1/media/posts/10/gallery/thickheadbands-thumbnail.jpeg\" alt=\"\" width=\"768\" height=\"576\"></a></figure>\n<figure class=\"gallery__item\"><a href=\"https://filobytess.gitlab.io/filo-by-tess-website-v1/media/posts/10/gallery/Wire-2022-02-15-at-5_30-PM.jpeg\" data-size=\"1352x1803\"><img loading=\"lazy\" src=\"https://filobytess.gitlab.io/filo-by-tess-website-v1/media/posts/10/gallery/Wire-2022-02-15-at-5_30-PM-thumbnail.jpeg\" alt=\"\" width=\"768\" height=\"1024\"></a></figure>\n<figure class=\"gallery__item\"><a href=\"https://filobytess.gitlab.io/filo-by-tess-website-v1/media/posts/10/gallery/gray-headband.jpeg\" data-size=\"1352x1803\"><img loading=\"lazy\" src=\"https://filobytess.gitlab.io/filo-by-tess-website-v1/media/posts/10/gallery/gray-headband-thumbnail.jpeg\" alt=\"\" width=\"768\" height=\"1024\"></a></figure>\n</div></div>\n<h2 class=\"align-center\">Cozy Warming Headband</h2>\n<div class=\"gallery-wrapper\"><div class=\"gallery\"  data-is-empty=\"false\" data-columns=\"1\">\n<figure class=\"gallery__item\"><a href=\"https://filobytess.gitlab.io/filo-by-tess-website-v1/media/posts/10/gallery/cable-knit-headband-3.jpeg\" data-size=\"2016x1512\"><img loading=\"lazy\" src=\"https://filobytess.gitlab.io/filo-by-tess-website-v1/media/posts/10/gallery/cable-knit-headband-3-thumbnail.jpeg\" alt=\"\" width=\"768\" height=\"576\"></a></figure>\n</div></div>\n<p class=\"align-center\">This thick and cozy headband will be sure to keep your ears warm and comfortable on any chilly day!  (Can come in any color - see top of the page for inspiration!)<br><strong>Price: $25</strong></p>\n<hr>\n<h2 class=\"align-center\">Plush  Warming Headband</h2>\n<h2><figure class=\"post__image post__image--center\"><img loading=\"lazy\"  src=\"https://filobytess.gitlab.io/filo-by-tess-website-v1/media/posts/10/plush-cable-knit-headband-2\" alt=\"\" width=\"2016\" height=\"1512\"></figure></h2>\n<p class=\"align-center\">These extra soft, plush cable knit headbands are made with Red Heart's hygge (hoo-gah) yarn and will be sure to keep away the cold while keeping you stylish!<br><em><strong>Price: $25</strong></em></p>",
            "image": "https://filobytess.gitlab.io/filo-by-tess-website-v1/media/posts/10/gray-headband.jpeg",
            "author": {
                "name": "Tessa C"
            },
            "tags": [
            ],
            "date_published": "2021-07-09T10:31:22-04:00",
            "date_modified": "2022-02-15T21:36:22-05:00"
        },
        {
            "id": "https://filobytess.gitlab.io/filo-by-tess-website-v1/ordering-2.html",
            "url": "https://filobytess.gitlab.io/filo-by-tess-website-v1/ordering-2.html",
            "title": "Ordering",
            "summary": " Placing an Order To place an order, please email me at&hellip;",
            "content_html": "\n    <h2 id=\"placing-an-order\">\n      Placing an Order\n    </h2>\n\n  <p>\n    To place an order, please email me at filobytess@gmail.com with the following information:\n  </p>\n\n  <ul>\n    <li>Name of the item(s) you wish to purchase</li><li>Color or pattern for each item</li><li>State/town you live in to help finalize shipping costs (if you live locally in the Upper Valley I can deliver your order myself)</li>\n  </ul>\n\n  <p>\n    After you email me, I will respond with a quote providing the total bill including shipping and handling costs if applicable. I will wait for your approval for the quote before starting your project.\n  </p>\n\n  <p>\n    After the project is completed, I will send a picture of the final product, and after payment is received will send or deliver it to you. If there are any questions along the way, I will just be an email away!\n  </p>\n\n    <h2 id=\"paying-for-your-order\">\n      Paying for Your Order\n    </h2>\n\n  <p>\n    Payment information will be included with the quote and completed project emails. Payment methods we support currently are:<br><br>\n  </p>\n\n  <ul>\n    <li>Cash</li><li>Check</li><li>Venmo</li><li>PayPal</li>\n  </ul>\n\n    <h2 id=\"customizing-your-order\">\n      Customizing Your Order\n    </h2>\n\n  <p>\n    See a design on this site that interests you, but want it in a particular color or pattern? Making your knit dream perfect is my passion! Just describe the customizations you are interested in for each item, and I will reach out to you to discuss the details for your specific project.&nbsp;If you have an idea for a design or project that is not pictured on the website, I would still love to help you translate your vision in a custom project! Just reach out to me at filobytess@gmail.com, and we will start the process of designing your knit creation together!\n  </p>\n\n  <p>\n    <i><b>Note:</b> Customizing an order may increase the time and/or price associated with your project, and may be subject to the availability of particular yarn types/patterns at the time of your order. Certain customizations may not be available.</i>\n  </p>",
            "author": {
                "name": "Tessa C"
            },
            "tags": [
            ],
            "date_published": "2021-07-08T18:51:50-04:00",
            "date_modified": "2021-10-31T19:42:34-04:00"
        },
        {
            "id": "https://filobytess.gitlab.io/filo-by-tess-website-v1/soft-n-tough-knit-scrubbies.html",
            "url": "https://filobytess.gitlab.io/filo-by-tess-website-v1/soft-n-tough-knit-scrubbies.html",
            "title": "Scrubbies",
            "summary": "Soft-n-Tough Knit Scrubbies My partly soft, partly tough dish scrubbies come in&hellip;",
            "content_html": "<h2><figure class=\"post__image post__image--left\"><img loading=\"lazy\"  src=\"https://filobytess.gitlab.io/filo-by-tess-website-v1/media/posts/7/-soft-knit-scrubbies.jpeg\" sizes=\"(max-width: 1024px) 100vw, 1024px\" srcset=\"https://filobytess.gitlab.io/filo-by-tess-website-v1/media/posts/7/responsive/-soft-knit-scrubbies-xs.jpeg 300w ,https://filobytess.gitlab.io/filo-by-tess-website-v1/media/posts/7/responsive/-soft-knit-scrubbies-sm.jpeg 480w ,https://filobytess.gitlab.io/filo-by-tess-website-v1/media/posts/7/responsive/-soft-knit-scrubbies-md.jpeg 768w ,https://filobytess.gitlab.io/filo-by-tess-website-v1/media/posts/7/responsive/-soft-knit-scrubbies-lg.jpeg 1024w\"  alt=\"Soft-n-tough scrubbies\" width=\"1512\" height=\"1699\"></figure>Soft-n-Tough Knit Scrubbies</h2>\n<p>My partly soft, partly tough dish scrubbies come in many colors. They can be ordered in either a regular rectangle or heart shape. Reusable and machine washable!</p>\n<p class=\"align-center\"><strong>Price:<br></strong><em>Rectangle: <strong>$9</strong> -or- <strong>2 for $16</strong><br>Heart: <strong>$12</strong> -or- <strong>2 for $20</strong></em></p>\n<p> </p>\n<hr>\n<figure class=\"post__image post__image--left\"><img loading=\"lazy\"  src=\"https://filobytess.gitlab.io/filo-by-tess-website-v1/media/posts/7/-rough-heart-knit-scrubbies_CROPPED.jpeg\" sizes=\"(max-width: 1024px) 100vw, 1024px\" srcset=\"https://filobytess.gitlab.io/filo-by-tess-website-v1/media/posts/7/responsive/-rough-heart-knit-scrubbies_CROPPED-xs.jpeg 300w ,https://filobytess.gitlab.io/filo-by-tess-website-v1/media/posts/7/responsive/-rough-heart-knit-scrubbies_CROPPED-sm.jpeg 480w ,https://filobytess.gitlab.io/filo-by-tess-website-v1/media/posts/7/responsive/-rough-heart-knit-scrubbies_CROPPED-md.jpeg 768w ,https://filobytess.gitlab.io/filo-by-tess-website-v1/media/posts/7/responsive/-rough-heart-knit-scrubbies_CROPPED-lg.jpeg 1024w\"  alt=\"\" width=\"749\" height=\"768\"></figure>\n<h2>Soft Bristle Scrubbies</h2>\n<p class=\"align-left\">These Soft Bristle Scrubbies are great for wiping away small messes...Reusable and machine washable!</p>\n<p class=\"align-center\"><strong>Price:<br></strong><em>Rectangle: <strong>$10</strong> -or- <strong>2 for $18</strong><br>Heart:</em> <strong><em>$13</em></strong><em> -or- <strong>2 for $22</strong></em></p>\n<p> </p>",
            "image": "https://filobytess.gitlab.io/filo-by-tess-website-v1/media/posts/7/rough-heart-knit-scrubbies-2-rotated-cropped.jpeg-3.jpg",
            "author": {
                "name": "Tessa C"
            },
            "tags": [
            ],
            "date_published": "2021-07-08T14:20:32-04:00",
            "date_modified": "2022-02-15T21:28:43-05:00"
        },
        {
            "id": "https://filobytess.gitlab.io/filo-by-tess-website-v1/faq.html",
            "url": "https://filobytess.gitlab.io/filo-by-tess-website-v1/faq.html",
            "title": "FAQ",
            "summary": "How do I care for my knit creation? Most of the yarns&hellip;",
            "content_html": "<p><strong>How do I care for my knit creation?</strong></p>\n<p>Most of the yarns I use can be washed in the washing machine on cold and low, and would do best laying flat to dry. This may vary depending on accessories added to products i.e (buttons,straps,etc). If you have any other questions on how to care for your creation please contact me!</p>\n<p> </p>\n<p><strong>Can I return my purchase if  I would like to?</strong></p>\n<p>Absolutely. If you would contact me within thirty days of your purchase I would be happy to help you return and/or exchange your item for another. (Please be aware there may be shipping costs associated with returns).</p>\n<p> </p>\n<p><strong>How do I pay for my order?</strong></p>\n<p>Once  you have selected the item you would like, please email me directly at <a href=\"mailto:filobytess@gmail.com\">filobytess@gmail.com</a> with the item you would like, specific color pictured on the website of the item, and your location so any shipping costs can be applied to the purchase price and I will get back to you with a formal quote. See our <a href=\"#non-existing-post-with-id-6\">Ordering Page</a> for more information!</p>\n<p> </p>\n<p> </p>",
            "author": {
                "name": "Tessa C"
            },
            "tags": [
            ],
            "date_published": "2021-06-16T20:31:50-04:00",
            "date_modified": "2021-10-31T19:43:00-04:00"
        },
        {
            "id": "https://filobytess.gitlab.io/filo-by-tess-website-v1/home.html",
            "url": "https://filobytess.gitlab.io/filo-by-tess-website-v1/home.html",
            "title": "About Filo by Tess",
            "summary": "Welcome! Filo (fee-low) is the Italian word for yarn or thread. As&hellip;",
            "content_html": "<h2 class=\"align-center\">Welcome!</h2>\n<p class=\"align-center\">Filo (fee-low) is the Italian word for yarn or thread. As I thought about starting my own business, I wanted to choose a name that represented not only what my business was, but also a part of me and my family. I would love each piece someone purchases from me to be a tangible expression of the love, support, and care I have known.  Every stitch of each item is hand knit in White River Junction, Vermont. Knitting is a labor of love for me. My hope is that anyone who comes across my creations will see that represented in the work and that whatever they choose will help brighten their day!</p>\n<figure class=\"post__image post__image--center\"><img loading=\"lazy\"  src=\"https://filobytess.gitlab.io/filo-by-tess-website-v1/media/posts/3/Wire-2021-07-03-at-10_30-PM.jpeg\" sizes=\"(max-width: 1024px) 100vw, 1024px\" srcset=\"https://filobytess.gitlab.io/filo-by-tess-website-v1/media/posts/3/responsive/Wire-2021-07-03-at-10_30-PM-xs.jpeg 300w ,https://filobytess.gitlab.io/filo-by-tess-website-v1/media/posts/3/responsive/Wire-2021-07-03-at-10_30-PM-sm.jpeg 480w ,https://filobytess.gitlab.io/filo-by-tess-website-v1/media/posts/3/responsive/Wire-2021-07-03-at-10_30-PM-md.jpeg 768w ,https://filobytess.gitlab.io/filo-by-tess-website-v1/media/posts/3/responsive/Wire-2021-07-03-at-10_30-PM-lg.jpeg 1024w\"  alt=\"knit creations\" width=\"2016\" height=\"1512\"></figure>\n<p> </p>\n<div> </div>\n<p> </p>\n<p> </p>\n<p class=\"align-center\"> </p>",
            "image": "https://filobytess.gitlab.io/filo-by-tess-website-v1/media/posts/3/knit-pattern-close-up.jpeg",
            "author": {
                "name": "Tessa C"
            },
            "tags": [
            ],
            "date_published": "2021-06-16T20:16:01-04:00",
            "date_modified": "2021-10-31T19:56:32-04:00"
        }
    ]
}
